{
  "measure" : "reward",
  "thresholds" : [0.5, 1.0, 2.2, 3.2, 4.2],
  "min_lesson_length": 500,
  "signal_smoothing" : true,
  "parameters" :
  {
      "level_number" : [0.0, 1.0, 2.0, 2.0, 3.0, 3.0],
      "good_ball_wrong_goal_reward" : [-0.5, -0.5,-0.5, -0.5, -0.5, -0.5],
      "good_ball_right_goal_reward" : [1.0, 1.0, 1.0, 1.0, 1.0, 1.0],
      "bad_ball_wrong_goal_reward" : [-0.5, -0.5, -0.5, -0.5, -0.5, -0.5],
      "bad_ball_right_goal_reward" : [1.0, 1.0, 1.0, 1.0, 1.0, 1.0],
      "number_of_good_balls" : [1.0, 1.0, 2.0, 3.0, 4.0, 5.0],
      "number_of_bad_balls" : [1.0, 1.0, 2.0, 3.0, 4.0, 5.0],
      "agent_max_steps" : [1000.0, 1000.0, 1500.0, 15000.0, 1500.0, 1700.0],
      "ball_scale" : [1.5, 1.25, 1.0, 0.8, 0.8, 0.6],
      "randomize_ball_type" : [1.0, 0.0, 0.0, 0.0, 0.0, 0.0],
      "time_step_reward_multiplier" : [1.0, 1.0, 1.0, 1.0, 1.0, 1.0]
  }
}